[
    {
        "team": 1,
        "time": 20,
        "word": 5,
        "guesses": 5
    },
    {
        "team": 2,
        "time": 20,
        "word": 5,
        "guesses": 5
    },
    {
        "team": 1,
        "time": 20,
        "word": 5,
        "guesses": 5
    },
    {
        "team": 2,
        "time": 20,
        "word": 5,
        "guesses": 5
    },
    {
        "team": 1,
        "time": 20,
        "word": 6,
        "guesses": 5
    },
    {
        "team": 2,
        "time": 20,
        "word": 6,
        "guesses": 5
    },
    {
        "team": 1,
        "time": 20,
        "word": 6,
        "guesses": 5
    },
    {
        "team": 2,
        "time": 20,
        "word": 6,
        "guesses": 5
    },
    {
        "team": 1,
        "time": 20,
        "word": 7,
        "guesses": 5
    },
    {
        "team": 2,
        "time": 20,
        "word": 7,
        "guesses": 5
    }
]
